<svg width="25" height="22" viewBox="0 0 25 22" fill="none" xmlns="http://www.w3.org/2000/svg">
<path id='first' d="M5.08309 0H1.17302C0.526882 0 0 0.526393 0 1.17302V5.08309C0 5.72972 0.526882 6.25611 1.17302 6.25611H5.08309C5.72923 6.25611 6.25611 5.72972 6.25611 5.08309V1.17302C6.25611 0.526393 5.72923 0 5.08309 0ZM4.69208 4.69208H1.56403V1.56403H4.69208V4.69208ZM5.08309 7.82014H1.17302C0.526882 7.82014 0 8.34653 0 8.99316V12.9032C0 13.5499 0.526882 14.0762 1.17302 14.0762H5.08309C5.72923 14.0762 6.25611 13.5499 6.25611 12.9032V8.99316C6.25611 8.34653 5.72923 7.82014 5.08309 7.82014ZM4.69208 12.5122H1.56403V9.38416H4.69208V12.5122ZM5.08309 15.6403H1.17302C0.526882 15.6403 0 16.1667 0 16.8133V20.7234C0 21.37 0.526882 21.8964 1.17302 21.8964H5.08309C5.72923 21.8964 6.25611 21.37 6.25611 20.7234V16.8133C6.25611 16.1667 5.72923 15.6403 5.08309 15.6403ZM4.69208 20.3324H1.56403V17.2043H4.69208V20.3324ZM14.4673 0H10.5572C9.91105 0 9.38416 0.526393 9.38416 1.17302V5.08309C9.38416 5.72972 9.91105 6.25611 10.5572 6.25611H14.4673C15.1134 6.25611 15.6403 5.72972 15.6403 5.08309V1.17302C15.6403 0.526393 15.1134 0 14.4673 0ZM14.0762 4.69208H10.9482V1.56403H14.0762V4.69208ZM14.4673 7.82014H10.5572C9.91105 7.82014 9.38416 8.34653 9.38416 8.99316V12.9032C9.38416 13.5499 9.91105 14.0762 10.5572 14.0762H14.4673C15.1134 14.0762 15.6403 13.5499 15.6403 12.9032V8.99316C15.6403 8.34653 15.1134 7.82014 14.4673 7.82014ZM14.0762 12.5122H10.9482V9.38416H14.0762V12.5122ZM14.4673 15.6403H10.5572C9.91105 15.6403 9.38416 16.1667 9.38416 16.8133V20.7234C9.38416 21.37 9.91105 21.8964 10.5572 21.8964H14.4673C15.1134 21.8964 15.6403 21.37 15.6403 20.7234V16.8133C15.6403 16.1667 15.1134 15.6403 14.4673 15.6403ZM14.0762 20.3324H10.9482V17.2043H14.0762V20.3324Z" fill="#2C2E4A"/>
<path id='second' d="M23.827 0H19.9169C19.2708 0 18.7439 0.526393 18.7439 1.17302V5.08309C18.7439 5.72972 19.2708 6.25611 19.9169 6.25611H23.827C24.4731 6.25611 25 5.72972 25 5.08309V1.17302C25 0.526393 24.4731 0 23.827 0ZM23.436 4.69208H20.3079V1.56403H23.436V4.69208ZM23.827 7.82014H19.9169C19.2708 7.82014 18.7439 8.34653 18.7439 8.99316V12.9032C18.7439 13.5499 19.2708 14.0762 19.9169 14.0762H23.827C24.4731 14.0762 25 13.5499 25 12.9032V8.99316C25 8.34653 24.4731 7.82014 23.827 7.82014ZM23.436 12.5122H20.3079V9.38416H23.436V12.5122ZM23.827 15.6403H19.9169C19.2708 15.6403 18.7439 16.1667 18.7439 16.8133V20.7234C18.7439 21.37 19.2708 21.8964 19.9169 21.8964H23.827C24.4731 21.8964 25 21.37 25 20.7234V16.8133C25 16.1667 24.4731 15.6403 23.827 15.6403ZM23.436 20.3324H20.3079V17.2043H23.436V20.3324Z" fill="#2C2E4A"/>
</svg>
